{
    "words": [
        "one",
        "two",
        "three",
        "four",
        "five",
        "six",
        "seven",
        "eight",
        "nine",
        "ten",
        "eleven",
        "twelve",
        "thirteen",
        "fourteen",
        "fifteen",
        "sixteen",
        "seventeen",
        "eighteen",
        "nineteen",
        "twenty",
        "twenty-one",
        "twenty-two",
        "twenty-three",
        "twenty-four"
    ]
}

